Timestamp,Open,High,Low,Close,Volume,Date
1708905600000,388.50000000,404.90000000,382.00000000,401.60000000,1196262.20400000,2024-02-25
1708992000000,401.50000000,403.70000000,389.60000000,394.60000000,915873.07300000,2024-02-26
1709078400000,394.60000000,427.30000000,394.10000000,414.60000000,1348008.99500000,2024-02-27
1709164800000,414.70000000,419.70000000,391.10000000,399.40000000,1146024.36200000,2024-02-28
1709251200000,399.30000000,408.60000000,398.80000000,407.40000000,586580.61100000,2024-02-29
1709337600000,407.40000000,414.80000000,405.80000000,410.90000000,590018.54300000,2024-03-01
1709424000000,410.90000000,416.80000000,402.20000000,414.50000000,838274.34600000,2024-03-02
1709510400000,414.50000000,423.80000000,410.60000000,418.40000000,1045414.00100000,2024-03-03
1709596800000,418.50000000,427.20000000,356.10000000,394.10000000,2073303.79000000,2024-03-04
1709683200000,394.10000000,434.70000000,385.60000000,429.40000000,1804741.11200000,2024-03-05
1709769600000,429.40000000,476.80000000,423.20000000,474.60000000,1672134.41000000,2024-03-06
1709856000000,474.60000000,489.60000000,462.50000000,485.80000000,1660311.36100000,2024-03-07
1709942400000,485.80000000,493.80000000,480.70000000,488.30000000,852029.24100000,2024-03-08
1710028800000,488.30000000,537.50000000,484.80000000,528.90000000,1944137.08400000,2024-03-09
1710115200000,528.90000000,533.80000000,505.50000000,523.00000000,1608146.39700000,2024-03-10
1710201600000,523.00000000,548.50000000,519.00000000,537.50000000,1924767.68700000,2024-03-11
1710288000000,537.40000000,633.50000000,531.70000000,630.50000000,2526002.56400000,2024-03-12
1710374400000,630.50000000,631.50000000,565.50000000,603.20000000,2119540.30000000,2024-03-13
1710460800000,603.20000000,635.20000000,540.90000000,632.70000000,3066312.78800000,2024-03-14
1710547200000,632.70000000,645.20000000,567.20000000,576.40000000,1811838.04200000,2024-03-15
1710633600000,576.40000000,590.50000000,548.60000000,571.70000000,1712920.34100000,2024-03-16
1710720000000,571.70000000,587.70000000,540.10000000,555.40000000,2284301.81400000,2024-03-17
1710806400000,555.40000000,560.60000000,495.80000000,507.70000000,2551361.51200000,2024-03-18
1710892800000,507.70000000,559.00000000,500.00000000,556.80000000,1425296.57900000,2024-03-19
1710979200000,556.70000000,571.00000000,540.60000000,553.80000000,953921.37200000,2024-03-20
1711065600000,553.80000000,588.10000000,535.50000000,553.80000000,1181298.51000000,2024-03-21
1711152000000,553.80000000,567.70000000,543.40000000,551.90000000,608753.32900000,2024-03-22
1711238400000,551.90000000,573.00000000,548.70000000,567.70000000,442930.35000000,2024-03-23
1711324800000,567.80000000,598.00000000,564.40000000,587.00000000,802695.51200000,2024-03-24
1711411200000,587.10000000,597.00000000,571.90000000,580.40000000,569324.07900000,2024-03-25
1711497600000,580.40000000,585.60000000,560.30000000,568.80000000,485663.93500000,2024-03-26
